…
这里简单看一个其他类型数据的处理的例子。

```r
(dat <- read_csv("/path/to/dt_simulated.csv"))
Parsed with column specification:
cols(
  Age = col_double(),
  Gender = col_character(),
  Cholesterol = col_double(),
  SystolicBP = col_double(),
  BMI = col_double(),
  Smoking = col_character(),
  Education = col_character()
)
# A tibble: 250 x 7
     Age Gender Cholesterol SystolicBP   BMI Smoking Education
   <dbl> <chr>        <dbl>      <dbl> <dbl> <chr>   <chr>    
 1  67.9 Female        236.       130.  26.4 Yes     High     
 2  54.8 Female        256.       133.  28.4 No      Medium   
 3  68.4 Male          199.       158.  24.1 Yes     High     
 4  67.9 Male          205        136   19.9 No      Low      
 5  60.9 Male          208.       145.  26.7 No      Medium   
 6  44.9 Female        222.       131.  30.6 No      Low      
 7  49.9 Male          202.       152.  27.3 No      Medium   
 8  55.1 Female        206.       151.  27.5 No      Low      
 9  57.5 Male          202.       142.  28.3 No      High     
10  77.2 Male          240.       161.  29.1 No      High     
# ... with 240 more rows
…
