…
（从这里开始为了贴结果方便我还是切到 R 里做了）


首先我们根据刚刚改进的搜索词来找到对应的 `itemid`：

```r
query("SELECT itemid, label, category, linksto FROM d_items di
       WHERE dbsource = 'metavision' 
          AND (lower(label) LIKE '%dialy%'
          OR category = 'Dialysis'
          OR lower(label) LIKE '%crrt%')
       ORDER BY linksto, category, label;")

# A tibble: 65 x 4
   itemid label                                          category                linksto    
 *  <int> <chr>                                          <chr>                   <chr>      
 1 225740 Dialysis Catheter Discontinued                 Access Lines - Invasive chartevents
 2 227357 Dialysis Catheter Dressing Occlusive           Access Lines - Invasive chartevents
 3 225776 Dialysis Catheter Dressing Type                Access Lines - Invasive chartevents
 4 226118 Dialysis Catheter placed in outside facility   Access Lines - Invasive chartevents
 5 227753 Dialysis Catheter Placement Confirmed by X-ray Access Lines - Invasive chartevents
 6 225323 Dialysis Catheter Site Appear                  Access Lines - Invasive chartevents
 7 225725 Dialysis Catheter Tip Cultured                 Access Lines - Invasive chartevents
 8 227124 Dialysis Catheter Type                         Access Lines - Invasive chartevents
 9 225126 Dialysis patient                               Adm History/FHPA        chartevents
10 224149 Access Pressure                                Dialysis                chartevents
# ... with 55 more rows
```
…
